{
    "DNDConfig": null,
    "__parentReadjusting__": false,
    "_height_": {
        "type": "string",
        "value": "100%"
    },
    "_left_": {
        "type": "string",
        "value": "0dp"
    },
    "_margin_": [
        0,
        0,
        0,
        0
    ],
    "_orientation_": 6,
    "_padding_": [
        0,
        0,
        0,
        0
    ],
    "_percent_": true,
    "_skin_": "sd3b9ca288844ae0aea7bdc4b654ca50",
    "_top_": {
        "type": "string",
        "value": "0dp"
    },
    "_width_": {
        "type": "string",
        "value": "100%"
    },
    "allboxes": [],
    "autogrowmode": 0,
    "canUpdateUI": true,
    "children": [
        "imgStatus",
        "lblPackageName",
        "lblPackageStatus",
        "lblPackageLastStatusDate",
        "lblHiddenInternalTracking",
        "lblHIddenPriceToPay",
        "lblHIddenDescription",
        "lblHiddenWeight",
        "lblHiddenSupplier",
        "lblHiddenCourierTracking",
        "lblHIddenCourier"
    ],
    "clipbounds": true,
    "containerId": true,
    "containerweight": 100,
    "disabledSkins": {},
    "enablescrolling": true,
    "focusskin": "scc1550d26894536aa18db240770d9ad",
    "id": "flxMainContainerItems",
    "info": null,
    "iscustomlayout": false,
    "isvisible": true,
    "kuid": "c188e8d3dc3049928e9b7760574a0bdb",
    "layouttype": 2,
    "name": "kony.ui.FlexContainer",
    "parent": "flxPackagesContainer",
    "pf": "segPackages",
    "retaincontentalignment": false,
    "retainflexpositionproperties": false,
    "retainflowhorizontalalignment": false,
    "snapgridsize": 10,
    "snaptogrid": true,
    "wType": "FlexContainer",
    "widgetalignment": 1
}