{
    "@class": "com.kony.gen.viz.model.component.KVizButton",
    "DNDConfig": null,
    "__parentReadjusting__": false,
    "_height_": {
        "type": "string",
        "value": "8.18%"
    },
    "_left_": {
        "type": "string",
        "value": "2.53%"
    },
    "_margin_": [
        6,
        6,
        6,
        6
    ],
    "_padding_": [
        0,
        0,
        0,
        0
    ],
    "_skin_": "s843136a69e04d88a995f7031e9f70d9",
    "_text_": "  Cerrar Sessión",
    "_top_": {
        "type": "string",
        "value": "20.17%"
    },
    "_width_": {
        "type": "string",
        "value": "98.82%"
    },
    "canUpdateUI": true,
    "containerweight": 100,
    "contentalignment": 4,
    "disabledSkins": {},
    "displaytext": true,
    "focusskin": "sdb51815ce5742d7b4d8e4ec041117d8",
    "id": "btnLogOut",
    "info": null,
    "iscustomlayout": false,
    "isvisible": true,
    "kuid": "jde491358d8d4168a8568829cda4e305",
    "name": "kony.ui.Button",
    "parent": "flxMainAboutContainer",
    "pf": "frmPreferencias",
    "retaincontentalignment": false,
    "retainflexpositionproperties": false,
    "wType": "Button",
    "zindex": 1
}