{
    "@class": "com.kony.gen.viz.model.component.KVizButton",
    "DNDConfig": null,
    "__parentReadjusting__": false,
    "_height_": {
        "type": "string",
        "value": "49.67%"
    },
    "_left_": {
        "type": "string",
        "value": "-0.01%"
    },
    "_margin_": [
        6,
        6,
        6,
        6
    ],
    "_padding_": [
        0,
        0,
        0,
        0
    ],
    "_skin_": "s223fc6b7f89476b964028b441b9f45c",
    "_text_": "Button",
    "_top_": {
        "type": "string",
        "value": "58.51%"
    },
    "_width_": {
        "type": "string",
        "value": "8.90%"
    },
    "canUpdateUI": true,
    "containerweight": 100,
    "contentalignment": 5,
    "disabledSkins": {},
    "displaytext": false,
    "focusskin": "sce25835423f4d6dad9eb9a2c1044f72",
    "id": "btnBackButton",
    "ide_onClick": "AS_Button_jc2f4cec3fd348c59c5bf1cab842dc82",
    "info": null,
    "iscustomlayout": false,
    "isvisible": true,
    "kuid": "b861b7113b214322a22588734970686b",
    "name": "kony.ui.Button",
    "parent": "flxContainer",
    "pf": "userwidgetmodel",
    "retaincontentalignment": false,
    "retainflexpositionproperties": false,
    "wType": "Button",
    "zindex": 1
}