{
    "@class": "com.kony.gen.viz.model.container.KVizSegment2",
    "DNDConfig": null,
    "__parentReadjusting__": false,
    "_data_": [
        {
            "lblOffice": {
                "@class": "com.viz.ide.model.segment.SimpleTextSegmentData",
                "text": "Cargando..."
            }
        },
        {
            "lblOffice": {
                "@class": "com.viz.ide.model.segment.SimpleTextSegmentData",
                "text": "Cargando..."
            }
        },
        {
            "lblOffice": {
                "@class": "com.viz.ide.model.segment.SimpleTextSegmentData",
                "text": "Cargando..."
            }
        },
        {
            "lblOffice": {
                "@class": "com.viz.ide.model.segment.SimpleTextSegmentData",
                "text": "Cargando..."
            }
        },
        {
            "lblOffice": {
                "@class": "com.viz.ide.model.segment.SimpleTextSegmentData",
                "text": "Cargando..."
            }
        },
        {
            "lblOffice": {
                "@class": "com.viz.ide.model.segment.SimpleTextSegmentData",
                "text": "Cargando..."
            }
        },
        {
            "lblOffice": {
                "@class": "com.viz.ide.model.segment.SimpleTextSegmentData",
                "text": "Cargando..."
            }
        },
        {
            "lblOffice": {
                "@class": "com.viz.ide.model.segment.SimpleTextSegmentData",
                "text": "Cargando..."
            }
        },
        {
            "lblOffice": {
                "@class": "com.viz.ide.model.segment.SimpleTextSegmentData",
                "text": "Cargando..."
            }
        }
    ],
    "_height_": {
        "type": "string",
        "value": "70.73%"
    },
    "_indicator_": "none",
    "_left_": {
        "type": "string",
        "value": "0dp"
    },
    "_margin_": [
        0,
        0,
        0,
        0
    ],
    "_orientation_": 2,
    "_padding_": [
        0,
        0,
        0,
        0
    ],
    "_width_": {
        "type": "string",
        "value": "100%"
    },
    "autogrowmode": 0,
    "canUpdateUI": true,
    "centery": {
        "type": "string",
        "value": "57.94%"
    },
    "containerweight": 100,
    "counter": "08",
    "focusedindex": null,
    "focuseditem": null,
    "groupcells": false,
    "hasSections": false,
    "id": "segOficinasList",
    "ide_onRowClick": "AS_Segment_a1f2060eec6a49a58f0de2fe8116e919",
    "info": null,
    "ipad": {
        "psp": {
            "indicator": "rowselect"
        }
    },
    "iphone": {
        "psp": {
            "indicator": "rowselect"
        }
    },
    "iscustomlayout": false,
    "isvisible": true,
    "kuid": "d65c058993f44a9d93ef45af5a4fa2eb",
    "masterdata": {},
    "name": "kony.ui.SegmentedUI2",
    "needpageindicator": true,
    "pageoffdotimage": "pageoffdot.png",
    "pageondotimage": "pageondot.png",
    "paginationconfig": {
        "position": "bottom"
    },
    "parent": "frmOficinas",
    "pf": "frmOficinas",
    "retaincontentalignment": false,
    "retainflexpositionproperties": false,
    "retainselection": false,
    "rowTemplateId": "d41476689455433da8d3170177934297",
    "rowcounter": 8,
    "rowfocusskin": "s9bdfe93ca0548339d74c71441194ca3",
    "rowskin": "s6add00fd647475585fdc6ebadf3262e",
    "rowtemplate": "flxSgmContainer",
    "screenlevelwidget": false,
    "seccounter": 0,
    "sectionheaderskin": "sc33d7e1c8cb466d89d84ade94996e8b",
    "selectedRows": null,
    "selectedState": false,
    "selectedindex": null,
    "selectedindices": null,
    "selecteditems": null,
    "selectedsectionindex": 0,
    "selectionbehavior": "default",
    "separatorcolor": "aaaaaa00",
    "separatorrequired": true,
    "separatorthickness": 1,
    "showscrollbars": false,
    "viewtype": "tableview",
    "vizProps": {},
    "wType": "Segment",
    "widgetalignment": 5,
    "widgetdatamap": {
        "flxSgmContainer": "flxSgmContainer",
        "lblOffice": "lblOffice"
    },
    "zindex": 1
}