{
    "AS_Button_ab7e9c898d4c48368da4c4f37b808956": {
        "id": "AS_Button_ab7e9c898d4c48368da4c4f37b808956",
        "type": "ACTION_SEQUENCE",
        "params": [{
            "datatype": "collection",
            "name": "eventobject"
        }],
        "contextObj": {
            "name": "uwu503445c352d4b799aac02529e270aa4",
            "type": "userwidgets",
            "KUID": "u503445c352d4b799aac02529e270aa4"
        },
        "language": "js",
        "actions": [{
            "id": "SET_FORM_WIDGET_PROPERTY____i0a1a9d840ba49528ff13714360a3863",
            "type": "SET_WIDGET_PROPERTY",
            "itemType": "COMPONENT",
            "itemId": "com.footerCourier.konyapplication.component.footerCourierComponent",
            "widgetId": "Inbox",
            "propertyName": "skin",
            "propertyValue": "iconFocus",
            "itemKUID": "u503445c352d4b799aac02529e270aa4",
            "widgetKUID": "da5698fbcf3a4bb3914ff324046f1e47",
            "skinKUID": "sc47cf5ad7454040bff93fcde19af513",
            "isSkinProperty": true,
            "wType": "Label",
            "currentTheme": "defaultTheme",
            "forkedPlatform": "all",
            "parentId": null,
            "callbackType": null,
            "widgetPath": "this.view.Inbox"
        }]
    }
}