{
    "@class": "com.kony.gen.viz.model.component.KVizLabel",
    "DNDConfig": null,
    "__parentReadjusting__": false,
    "_height_": {
        "type": "ref",
        "value": "preferred"
    },
    "_margin_": [
        0,
        0,
        0,
        0
    ],
    "_padding_": [
        0,
        0,
        0,
        0
    ],
    "_skin_": "s9f8795373294d28a0088a1d6a158e94",
    "_text_": "",
    "_width_": {
        "type": "ref",
        "value": "preferred"
    },
    "_wrapping_": 2,
    "android": {
        "textStyle": {
            "letterSpacing": 0,
            "strikeThrough": false
        }
    },
    "canUpdateUI": true,
    "centerx": {
        "type": "string",
        "value": "48.00%"
    },
    "centery": {
        "type": "string",
        "value": "80.57%"
    },
    "containerweight": 100,
    "contentalignment": 4,
    "id": "Check",
    "info": null,
    "ipad": {
        "psp": {
            "wrapping": 2
        }
    },
    "iphone": {
        "psp": {
            "wrapping": 2
        }
    },
    "isvisible": false,
    "kuid": "cbf6995b186144d286ef9a66deef1407",
    "masterType": 1,
    "name": "kony.ui.Label",
    "parent": "frmLogin",
    "pf": "frmLogin",
    "textstyle": {},
    "tooltip": "",
    "wType": "Label",
    "zindex": 1
}