{
    "AS_Button_if624aa9857d4f08804f19a630d23e32": {
        "id": "AS_Button_if624aa9857d4f08804f19a630d23e32",
        "type": "ACTION_SEQUENCE",
        "params": [{
            "datatype": "collection",
            "name": "eventobject"
        }],
        "contextObj": {
            "name": "frmLogin",
            "type": "forms",
            "platform": null,
            "KUID": "e5b1c164c0a74cb6a57021b50a29fc3f"
        },
        "language": "js",
        "actions": [{
            "id": "NAVIGATE_TO_FORM___d48287cf312b42dbb7ddb9daf7c95186",
            "type": "NAVIGATE_TO_FORM",
            "formId": "frmOficinas",
            "formKUID": "jf30a41067854b168a2be0039c8b3fbb",
            "mappings": {},
            "mappingsOrder": [],
            "parentId": "",
            "callbackType": null,
            "enableMappingEditor": true,
            "package": "",
            "navigationObj": "{\n    \"_meta_\": {\n        \"eventName\": \"\",\n        \"widgetId\": \"\"\n    }\n}",
            "isCustomInput": false
        }]
    }
}