{
    "AS_Form_dcacd1bc89ba49a68def3ca25045b730": {
        "id": "AS_Form_dcacd1bc89ba49a68def3ca25045b730",
        "type": "ACTION_SEQUENCE",
        "params": [{
            "datatype": "collection",
            "name": "eventobject"
        }],
        "contextObj": {
            "name": "frmOficinas",
            "type": "forms",
            "platform": "",
            "KUID": "jf30a41067854b168a2be0039c8b3fbb"
        },
        "language": "js",
        "actions": [{
            "id": "INVOKE_FUNCTION___g18f7384a21949ab9a083994b8ecd6ef",
            "type": "INVOKE_FUNCTION",
            "sequenceKUID": "getData",
            "display": "getData",
            "inputparams": [],
            "parentId": null,
            "callbackType": null,
            "disabled": null,
            "source": "controller"
        }]
    }
}