{
    "AS_Segment_a1f2060eec6a49a58f0de2fe8116e919": {
        "id": "AS_Segment_a1f2060eec6a49a58f0de2fe8116e919",
        "type": "ACTION_SEQUENCE",
        "params": [{
            "datatype": "collection",
            "name": "eventobject"
        }, {
            "datatype": "number",
            "name": "sectionNumber"
        }, {
            "datatype": "number",
            "name": "rowNumber"
        }],
        "contextObj": {
            "name": "frmOficinas",
            "type": "forms",
            "platform": "",
            "KUID": "jf30a41067854b168a2be0039c8b3fbb"
        },
        "language": "js",
        "actions": [{
            "id": "NAVIGATE_TO_FORM___bdea0afa2dcc47c8b00931ffdc5e8f8d",
            "type": "NAVIGATE_TO_FORM",
            "formId": "frmOficinaDetails",
            "formKUID": "c495ee43e3c54ff89e222c0796f7329a",
            "mappings": {},
            "mappingsOrder": [],
            "parentId": "",
            "callbackType": null,
            "enableMappingEditor": true,
            "package": "",
            "enableNavigationObj": false,
            "navigationObj": "{\n    \"_meta_\": {\n        \"eventName\": \"onRowClick\",\n        \"widgetId\": \"segOficinasList\"\n    }\n}",
            "isCustomInput": false
        }]
    }
}