{
    "@class": "com.kony.gen.viz.model.component.KVizUserWidget",
    "DNDConfig": null,
    "__parentReadjusting__": false,
    "_android_": {},
    "_androidwearos_": {},
    "_children_": [],
    "_height_": {
        "type": "string",
        "value": "100%"
    },
    "_iphone_": {},
    "_left_": {
        "type": "string",
        "value": "0dp"
    },
    "_margin_": [
        0,
        0,
        0,
        0
    ],
    "_orientation_": 1,
    "_padding_": [
        0,
        0,
        0,
        0
    ],
    "_percent_": true,
    "_skin_": "sd3b9ca288844ae0aea7bdc4b654ca50",
    "_spa_": {},
    "_spaan_": {},
    "_spabb_": {},
    "_spaip_": {},
    "_spamobile_": {},
    "_top_": {
        "type": "string",
        "value": "0dp"
    },
    "_vizProps_": {
        "hidewidgethierarchy": false
    },
    "_width_": {
        "type": "string",
        "value": "100%"
    },
    "_windows8_": {},
    "_winphone8_": {},
    "areflexpropsreferenced": false,
    "canUpdateUI": true,
    "clipbounds": true,
    "containerweight": 0,
    "dataDiffs": {
        "Inbox": {
            "__events__": {},
            "__info__": {
                "kuid": "fb91aafb2304443eb8c248035046e630",
                "srcKUID": "da5698fbcf3a4bb3914ff324046f1e47",
                "wType": "Label"
            }
        },
        "Star": {
            "__events__": {},
            "__info__": {
                "kuid": "ce3b179e5cbc418d95fc71d6477dee6c",
                "srcKUID": "abcb8797df304db1a7ad227dbce6c9b6",
                "wType": "Label"
            }
        },
        "btnOfficinas": {
            "__events__": {
                "ide_onClick": "AS_Button_c2ba5d168e1d459981a189bb25d3fdfd"
            },
            "__info__": {
                "kuid": "bdee4cdd92014f26aacc5db209e61cfd",
                "srcKUID": "f623f11d4ea54644bcd98306560e076d",
                "wType": "Button"
            }
        },
        "btnPackage": {
            "__events__": {
                "ide_onClick": "AS_Button_j783af0f2db544a88442e3ded3385b5a"
            },
            "__info__": {
                "kuid": "da4d16cb379146eea3953805bf3a39de",
                "srcKUID": "a534e58f2fe7466a81355742c1833bb6",
                "wType": "Button"
            }
        },
        "btnPreferencias": {
            "__events__": {
                "ide_onClick": "AS_Button_d3bd23bd8a134ee8b12589b0457f7e65"
            },
            "__info__": {
                "kuid": "f6614e9a175a48088ec850eed6db555a",
                "srcKUID": "h5fc337d1b03486294d7abce9ef0adfe",
                "wType": "Button"
            }
        },
        "flxMainContainer": {
            "__events__": {},
            "__info__": {
                "kuid": "de300880f8844aee8d54b6d33e3daa08",
                "srcKUID": "d246564365ce493c9c1e57daf6160479",
                "wType": "FlexContainer"
            },
            "autogrowMode": {
                "Default": 0
            },
            "centerY": {
                "Default": {
                    "type": "string",
                    "value": "96%"
                }
            },
            "height": {
                "Default": {
                    "type": "string",
                    "value": "10%"
                }
            }
        },
        "footerCourierComponent": {
            "__events__": {},
            "__info__": {
                "isRoot": true,
                "kuid": "i73189030c904302bc995eb611233b1e",
                "srcKUID": "d8b6922cff8d42c790da1aeda91d692e",
                "wType": "FlexContainer"
            }
        },
        "lblOficinas": {
            "__events__": {},
            "__info__": {
                "kuid": "df268a1130ec42bebc6f74456ebd3c7c",
                "srcKUID": "j1d0be5e9a6c48d2871d74bcad085341",
                "wType": "Label"
            }
        },
        "lblPackage": {
            "__events__": {},
            "__info__": {
                "kuid": "f63ee14d625b4381b304cfb75841b671",
                "srcKUID": "cc9e00f9447949fe82974dee4b55672c",
                "wType": "Label"
            }
        },
        "lblPreferencias": {
            "__events__": {},
            "__info__": {
                "kuid": "f528127072a441089bab586b27369bf3",
                "srcKUID": "c8044f0b3d28437c87e0bc81e011d24a",
                "wType": "Label"
            }
        },
        "skinFocus": {
            "__events__": {},
            "__info__": {
                "kuid": "f9fa80662a8a482a88ad1cfe59567e13",
                "srcKUID": "d90d18ed730443e79e0ffa01ebd77cb5",
                "wType": "Label"
            }
        },
        "star2": {
            "__events__": {},
            "__info__": {
                "kuid": "g95e092931d74c549548c3ce5febab02",
                "srcKUID": "j17b5a6d661f41a4be9a9afb49f9f73a",
                "wType": "Label"
            }
        }
    },
    "enablescrolling": true,
    "id": "footerCourierComponent",
    "info": null,
    "iscustomlayout": false,
    "isdatareferenced": false,
    "issegmentchild": false,
    "isvisible": true,
    "kuid": "i73189030c904302bc995eb611233b1e",
    "layouttype": 2,
    "masterType": 0,
    "name": "kony.ui.UserWidgetInstance",
    "parent": "frmPaquetes",
    "pf": "frmPaquetes",
    "retaincontentalignment": false,
    "retainflexpositionproperties": false,
    "retainflowhorizontalalignment": false,
    "snapgridsize": 10,
    "snaptogrid": true,
    "sourceUserWidget": "d8b6922cff8d42c790da1aeda91d692e",
    "wType": "UserWidgetInstance"
}