{
    "@class": "com.kony.gen.viz.model.component.KVizUserWidget",
    "DNDConfig": null,
    "__parentReadjusting__": false,
    "_android_": {},
    "_androidwearos_": {},
    "_children_": [],
    "_height_": {
        "type": "string",
        "value": "100%"
    },
    "_iphone_": {},
    "_left_": {
        "type": "string",
        "value": "0dp"
    },
    "_margin_": [
        0,
        0,
        0,
        0
    ],
    "_orientation_": 1,
    "_padding_": [
        0,
        0,
        0,
        0
    ],
    "_percent_": true,
    "_skin_": "sd3b9ca288844ae0aea7bdc4b654ca50",
    "_spa_": {},
    "_spaan_": {},
    "_spabb_": {},
    "_spaip_": {},
    "_spamobile_": {},
    "_top_": {
        "type": "string",
        "value": "0dp"
    },
    "_vizProps_": {
        "hidewidgethierarchy": false
    },
    "_width_": {
        "type": "string",
        "value": "100%"
    },
    "_windows8_": {},
    "_winphone8_": {},
    "areflexpropsreferenced": false,
    "canUpdateUI": true,
    "clipbounds": true,
    "containerweight": 0,
    "dataDiffs": {
        "AngleLeft": {
            "__events__": {},
            "__info__": {
                "kuid": "c5b74c1bcf42470f9e76837a28d0d6ba",
                "srcKUID": "afa176c4c01e4dc1aa71d36d221b2f43",
                "wType": "Label"
            }
        },
        "HeaderComponent": {
            "__events__": {},
            "__info__": {
                "isRoot": true,
                "kuid": "gf20a8d044b54e3c88223c57c247df83",
                "srcKUID": "a58a6b595176432191fc5592c3024de0",
                "wType": "FlexContainer"
            }
        },
        "btnBackButton": {
            "__events__": {},
            "__info__": {
                "kuid": "e1f45ce5c49947ce8018e3eaa6301794",
                "srcKUID": "b861b7113b214322a22588734970686b",
                "wType": "Button"
            },
            "isVisible": false
        },
        "flxContainer": {
            "__events__": {},
            "__info__": {
                "kuid": "g3a283bdacf14fa7b02a00f542b78525",
                "srcKUID": "fb5e7be57ec240c1a2b1f201822992ab",
                "wType": "FlexContainer"
            }
        },
        "lblBrandTitle": {
            "__events__": {},
            "__info__": {
                "kuid": "fdde2fe1c5ed497682811009a34d4943",
                "srcKUID": "i2447193dc1a4f0a9461247cbee35adc",
                "wType": "Label"
            },
            "left": {
                "Default": {
                    "type": "string",
                    "value": "4.55%"
                }
            },
            "top": {
                "Default": {
                    "type": "string",
                    "value": "47dp"
                }
            }
        }
    },
    "enablescrolling": true,
    "id": "HeaderComponent",
    "info": null,
    "iscustomlayout": false,
    "isdatareferenced": false,
    "issegmentchild": false,
    "isvisible": true,
    "kuid": "gf20a8d044b54e3c88223c57c247df83",
    "layouttype": 2,
    "masterType": 0,
    "name": "kony.ui.UserWidgetInstance",
    "parent": "frmPaquetes",
    "pf": "frmPaquetes",
    "retaincontentalignment": false,
    "retainflexpositionproperties": false,
    "retainflowhorizontalalignment": false,
    "snapgridsize": 10,
    "snaptogrid": true,
    "sourceUserWidget": "a58a6b595176432191fc5592c3024de0",
    "wType": "UserWidgetInstance"
}