{
    "DNDConfig": null,
    "__parentReadjusting__": false,
    "_height_": {
        "type": "string",
        "value": "85.17%"
    },
    "_left_": {
        "type": "string",
        "value": "0dp"
    },
    "_margin_": [
        0,
        0,
        0,
        0
    ],
    "_orientation_": 6,
    "_padding_": [
        0,
        0,
        0,
        0
    ],
    "_percent_": true,
    "_skin_": "s95e227dc78b46acbf68e172b48f0183",
    "_top_": {
        "type": "string",
        "value": "15.45%"
    },
    "_width_": {
        "type": "string",
        "value": "100%"
    },
    "allboxes": [],
    "autogrowmode": 0,
    "canUpdateUI": true,
    "children": [
        "lblProductTitle",
        "segPackageStatus",
        "lblHr",
        "flxContainer"
    ],
    "clipbounds": true,
    "containerweight": 100,
    "enablescrolling": true,
    "id": "flxMainContainer",
    "info": null,
    "iscustomlayout": false,
    "isvisible": true,
    "kuid": "a8bb6b5d48d4486ca956a0c31c5b9a02",
    "layouttype": 2,
    "name": "kony.ui.FlexContainer",
    "parent": "frmPaquetesDetails",
    "pf": "frmPaquetesDetails",
    "retaincontentalignment": false,
    "retainflexpositionproperties": false,
    "retainflowhorizontalalignment": false,
    "snapgridsize": 10,
    "snaptogrid": true,
    "wType": "FlexContainer",
    "widgetalignment": 1,
    "zindex": 1
}