{
    "@class": "com.kony.gen.viz.model.component.KVizLabel",
    "DNDConfig": null,
    "__parentReadjusting__": false,
    "_margin_": [
        1,
        1,
        1,
        1
    ],
    "_padding_": [
        0,
        0,
        0,
        0
    ],
    "_skin_": "s6d6eb9614e94a1fa819153176015d1c",
    "_text_": "iPhone XS",
    "_top_": {
        "type": "string",
        "value": "3.82%"
    },
    "_width_": {
        "type": "string",
        "value": "97.22%"
    },
    "_wrapping_": 2,
    "android": {
        "textStyle": {
            "letterSpacing": 0,
            "strikeThrough": false
        }
    },
    "canUpdateUI": true,
    "centerx": {
        "type": "string",
        "value": "54.17%"
    },
    "centery": {
        "type": "string",
        "value": "8.59%"
    },
    "containerweight": 100,
    "contentalignment": 1,
    "id": "lblProductTitle",
    "info": null,
    "ipad": {
        "psp": {
            "wrapping": 2
        }
    },
    "iphone": {
        "psp": {
            "wrapping": 2
        },
        "textStyle": {
            "lineSpacing": 0,
            "strikeThrough": false,
            "strikeThroughStyle": "double"
        }
    },
    "iscustomlayout": false,
    "isvisible": true,
    "kuid": "bba52f5969db466da10ebe742fb70445",
    "maxnumberoflines": 2,
    "name": "kony.ui.Label",
    "parent": "flxMainContainer",
    "pf": "frmPaquetesDetails",
    "retaincontentalignment": false,
    "retainflexpositionproperties": false,
    "textstyle": {},
    "tooltip": "",
    "wType": "Label",
    "zindex": 1
}