{
    "@class": "com.kony.gen.viz.model.container.KVizSegment2",
    "DNDConfig": null,
    "__parentReadjusting__": false,
    "_data_": [
        {
            "imgStatusImage": {
                "@class": "com.viz.ide.model.segment.ImageSegmentData",
                "src": "loading_icon_png_15.png"
            },
            "lblDate": {
                "@class": "com.viz.ide.model.segment.SimpleTextSegmentData",
                "text": "Cargando..."
            },
            "lblStatus": {
                "@class": "com.viz.ide.model.segment.SimpleTextSegmentData",
                "text": "Cargando..."
            }
        },
        {
            "imgStatusImage": {
                "@class": "com.viz.ide.model.segment.ImageSegmentData",
                "src": "loading_icon_png_15.png"
            },
            "lblDate": {
                "@class": "com.viz.ide.model.segment.SimpleTextSegmentData",
                "text": "Cargando..."
            },
            "lblStatus": {
                "@class": "com.viz.ide.model.segment.SimpleTextSegmentData",
                "text": "Cargando..."
            }
        },
        {
            "imgStatusImage": {
                "@class": "com.viz.ide.model.segment.ImageSegmentData",
                "src": "loading_icon_png_15.png"
            },
            "lblDate": {
                "@class": "com.viz.ide.model.segment.SimpleTextSegmentData",
                "text": "Cargando..."
            },
            "lblStatus": {
                "@class": "com.viz.ide.model.segment.SimpleTextSegmentData",
                "text": "Cargando..."
            }
        },
        {
            "imgStatusImage": {
                "@class": "com.viz.ide.model.segment.ImageSegmentData",
                "src": "loading_icon_png_15.png"
            },
            "lblDate": {
                "@class": "com.viz.ide.model.segment.SimpleTextSegmentData",
                "text": "Cargando..."
            },
            "lblStatus": {
                "@class": "com.viz.ide.model.segment.SimpleTextSegmentData",
                "text": "Cargando..."
            }
        }
    ],
    "_height_": {
        "type": "string",
        "value": "255dp"
    },
    "_indicator_": "none",
    "_left_": {
        "type": "string",
        "value": "0dp"
    },
    "_margin_": [
        0,
        0,
        0,
        0
    ],
    "_orientation_": 2,
    "_padding_": [
        0,
        0,
        0,
        0
    ],
    "_top_": {
        "type": "string",
        "value": "265dp"
    },
    "_width_": {
        "type": "string",
        "value": "100%"
    },
    "autogrowmode": 0,
    "canUpdateUI": true,
    "containerweight": 100,
    "counter": "03",
    "focusedindex": null,
    "focuseditem": null,
    "groupcells": false,
    "hasSections": false,
    "id": "segPackageStatus",
    "info": null,
    "ipad": {
        "psp": {
            "indicator": "rowselect"
        }
    },
    "iphone": {
        "psp": {
            "indicator": "rowselect"
        }
    },
    "iscustomlayout": false,
    "isvisible": true,
    "kuid": "h0058bdb581f4721b3b62e2957678f7e",
    "masterdata": {},
    "name": "kony.ui.SegmentedUI2",
    "needpageindicator": true,
    "pageoffdotimage": "pageoffdot.png",
    "pageondotimage": "pageondot.png",
    "paginationconfig": {
        "position": "bottom"
    },
    "parent": "flxMainContainer",
    "pf": "frmPaquetesDetails",
    "retaincontentalignment": false,
    "retainflexpositionproperties": false,
    "retainselection": false,
    "rowTemplateId": "c4e89ab4d0e64750ac1dfa444852f229",
    "rowcounter": 3,
    "rowfocusskin": "s9bdfe93ca0548339d74c71441194ca3",
    "rowskin": "sdc1366461f54fa5b070c36292c1b624",
    "rowtemplate": "flxMainContainer",
    "screenlevelwidget": false,
    "seccounter": 0,
    "sectionheaderskin": "sc33d7e1c8cb466d89d84ade94996e8b",
    "selectedRows": null,
    "selectedState": false,
    "selectedindex": null,
    "selectedindices": null,
    "selecteditems": null,
    "selectedsectionindex": 0,
    "selectionbehavior": "default",
    "separatorcolor": "aaaaaa00",
    "separatorrequired": true,
    "separatorthickness": 1,
    "showscrollbars": false,
    "viewtype": "tableview",
    "vizProps": {},
    "wType": "Segment",
    "widgetalignment": 5,
    "widgetdatamap": {
        "flxMainContainer": "flxMainContainer",
        "imgStatusImage": "imgStatusImage",
        "lblDate": "lblDate",
        "lblStatus": "lblStatus"
    },
    "zindex": 1
}